act,action,cached,descrption
REQ_PASSED,allowed,,"If the request was routed to the site's web server"
REQ_CACHED_*,allowed,true,"If a response was returned from the data center's cache"
REQ_BAD_X,error,,"If a protocol or network error occurred"
REQ_CHALLENGED_,blocked,,"If a challenge was returned to the client"
REQ_BLOCKED_,blocked,,"If the request was blocked"
*,allowed,,"Presume allowed Imperva said something we don't understand"
,allowed,,"Presume allowed Imperva did not say"
